Select variables for logistic regression models using MIV
…
train <- purchase_train
validation_and_testing <- purchase_test

set.seed(456)
validation_test_split <- initial_split(validation_and_testing, prop = 0.5, strata = 'PURCHASE')
validation <- training(validation_test_split)
test <- testing(validation_test_split)

Bin all features, shows a summary of the variables information values in descending order.

binned_features <- bin_all(train, y = 'PURCHASE', bins=10, verbose = FALSE)
binned_features %>% print(n=20)

## # A tibble: 68 x 2
##                          feature      iv
##                            <chr>   <dbl>
##  1               N_OPEN_REV_ACTS 0.99997
##  2          TOT_HI_CRDT_CRDT_LMT 0.96398
##  3          RATIO_BAL_TO_HI_CRDT 0.74868
##  4   D_NA_M_SNC_MST_RCNT_ACT_OPN 0.63555
##  5    M_SNC_OLDST_RETAIL_ACT_OPN 0.51819
##  6     PRCNT_OF_ACTS_NEVER_DLQNT 0.48795
##  7        M_SNC_MST_RCNT_ACT_OPN 0.48423
##  8       AGRGT_BAL_ALL_XCLD_MRTG 0.48106
##  9       AVG_BAL_ALL_PRM_BC_ACTS 0.41245
## 10            HI_RETAIL_CRDT_LMT 0.38790
## 11      RATIO_RETAIL_BAL2HI_CRDT 0.36760
## 12     N_OF_SATISFY_FNC_REV_ACTS 0.29050
## 13 D_NA_AVG_BAL_ALL_FNC_REV_ACTS 0.21230
## 14      AVG_BAL_ALL_FNC_REV_ACTS 0.20534
## 15               N_FNC_INSTLACTS 0.19401
## 16          N_BC_ACTS_OPN_IN_24M 0.18677
## 17    M_SNC_MSTREC_INSTL_TRD_OPN 0.18541
## 18        N_FNC_ACTS_VRFY_IN_12M 0.16904
## 19      M_SNC_OLDST_MRTG_ACT_OPN 0.15912
## 20     N_PUB_REC_ACT_LINE_DEROGS 0.15251
## # ... with 48 more rows
…
and finally you can bin new data using the predict method. If you use predict on the entire binned_features object, all binned features will be binned in the new dataset, e.g.:

predict(binned_features, train, y = "PURCHASE") %>% select(N_OPEN_REV_ACTS, TOT_HI_CRDT_CRDT_LMT)

## # A tibble: 4,972 x 2
##    N_OPEN_REV_ACTS TOT_HI_CRDT_CRDT_LMT
##             <fctr>               <fctr>
##  1           (1,3]  (2.35e+04,4.32e+04]
##  2           (12,]          (2.52e+05,]
##  3           (0,1]   (9.8e+03,2.35e+04]
##  4           (4,6]  (2.35e+04,4.32e+04]
##  5           (0,1]              (0,800]
##  6            (,0]                 (,0]
##  7           (12,]          (2.52e+05,]
##  8            (,0]        (800,9.8e+03]
##  9           (1,3]  (2.35e+04,4.32e+04]
## 10           (4,6]          (2.52e+05,]
## # ... with 4,962 more rows

Use package to aid with model fitting

Initially we can take the feature with the highest information value and fit a model with this feature. I will use the mgcv package to fit generalised additive model as these allow for automatic handling of non-linear relationships between inputs and response.

binned_features

## # A tibble: 68 x 2
##                        feature      iv
##                          <chr>   <dbl>
##  1             N_OPEN_REV_ACTS 0.99997
##  2        TOT_HI_CRDT_CRDT_LMT 0.96398
##  3        RATIO_BAL_TO_HI_CRDT 0.74868
##  4 D_NA_M_SNC_MST_RCNT_ACT_OPN 0.63555
##  5  M_SNC_OLDST_RETAIL_ACT_OPN 0.51819
##  6   PRCNT_OF_ACTS_NEVER_DLQNT 0.48795
##  7      M_SNC_MST_RCNT_ACT_OPN 0.48423
##  8     AGRGT_BAL_ALL_XCLD_MRTG 0.48106
##  9     AVG_BAL_ALL_PRM_BC_ACTS 0.41245
## 10          HI_RETAIL_CRDT_LMT 0.38790
## # ... with 58 more rows
…
We can now make predictions with our current model and then use these to calculate the MIV values for the remaining candidate features. We need to bin all the variables to aid in calculating MIV. As mentioned above this can be done by using the predict method on the binned_features object.

model_predictions <- predict(candidate_model, train_transformed, type = 'response')
train_set_binned <- predict(binned_features, train, 'PURCHASE', 0.02)
all_mivs <- calculate_all_mivs(train_set_binned, y = 'PURCHASE', model_predictions)
all_mivs

## # A tibble: 45 x 3
##                   feature_name      iv     miv
##                          <chr>   <dbl>   <dbl>
##  1        TOT_HI_CRDT_CRDT_LMT 0.96398 0.27070
##  2 D_NA_M_SNC_MST_RCNT_ACT_OPN 0.63555 0.26782
##  3        RATIO_BAL_TO_HI_CRDT 0.74868 0.18014
##  4     AVG_BAL_ALL_PRM_BC_ACTS 0.41245 0.12075
##  5  M_SNC_OLDST_RETAIL_ACT_OPN 0.51819 0.11299
##  6      M_SNC_MST_RCNT_ACT_OPN 0.48423 0.09698
##  7   PRCNT_OF_ACTS_NEVER_DLQNT 0.48795 0.07004
##  8                  D_REGION_A 0.07164 0.05581
##  9       STUDENT_HI_CRED_RANGE 0.05207 0.05403
## 10             N_OPEN_REV_ACTS 0.99999 0.05348
## # ... with 35 more rows
…
